Level,Password
0,g9D9cREhslqBKtcA2uocGHPfMZVzeFK6
1,h4ubbcXrWqsTo7GGnnUMLppXbOogfBZ7
2,G6ctbMJ5Nb4cbFwhpMPSvxGHhQ7I6W8Q
3,tKOcJIbzM4lTs8hbCmzn5Zr4434fGZQm
4,Z0NsrtIkJoKALBCLi5eqFfcRN82Au2oD
5,fOIvE0MDtPTgRhqmmvvAOt2EfXR6uQgR
6,jmxSiH3SP6Sonf8dv66ng8v1cIEdjXWr
7,a6bZCNYwdKqN5cGP11ZdtPg0iImQQhAB
8,Sda6t0vkOPkM8YeOZkAGVhFoaplvlJFd
9,D44EcsFkLxPIkAAKLosx8z3hxX1Z4MCE
10,1KFqoJXi6hRaPluAmk8ESDW4fSysRoIg
11,YWqo0pjpcXzSIl5NMAVxg12QxeC1w9QG
12,lW3jYRI02ZKDBb8VtQBU1f6eDRo6WEj9
13,qPazSJBmrmU7UQJv17MHk1PGC4DxZMEP
14,TTkaI7AWG4iDERztBcEyKV7kRXH1EZRB
15,TRD7iZrd5gATjj9PkPEuaOlfEjHqj32V
16,XkEuChE0SbnKBvH1RU7ksIb9uuLmI7sd
17,8NEDUUxg8kFgPV84uLwvZkGn6okJQ6aq
18,8LMJEhKFbMKIL2mxQKjv0aEDdk7zpT0s
19,guVaZ3ET35LbgbFMoaN5tFcYT1jEP7UH3
20,89OWrTkGmiLZLv12JY4tLj2c4FW0xn56
21,91awVM9oDiUGm33JdzM7RVLBS8bz9n0s
22,qjA8cOoKFTzJhtV0Fzvt92fgvxVnVRBj
23,0xzF30T9Av8lgXhW7slhFCIsVKAPyl2r